{
  "project_info": {
    "project_number": "580407852702",
    "firebase_url": "https://native-angular-ng-9b026.firebaseio.com",
    "project_id": "native-angular-ng-9b026",
    "storage_bucket": "native-angular-ng-9b026.appspot.com"
  },
  "client": [
    {
      "client_info": {
        "mobilesdk_app_id": "1:580407852702:android:e1f5415666533fff",
        "android_client_info": {
          "package_name": "com.vmgsoftware.vmgmobilev2"
        }
      },
      "oauth_client": [
        {
          "client_id": "580407852702-88nk6o8i6icu6uecg9cvbofkmdbk79fh.apps.googleusercontent.com",
          "client_type": 3
        }
      ],
      "api_key": [
        {
          "current_key": "AIzaSyAVr8CMqcqSHZ4Ohi--8sjfUU8EoYERfoY"
        }
      ],
      "services": {
        "appinvite_service": {
          "other_platform_oauth_client": [
            {
              "client_id": "580407852702-88nk6o8i6icu6uecg9cvbofkmdbk79fh.apps.googleusercontent.com",
              "client_type": 3
            },
            {
              "client_id": "580407852702-rqtom0g09pc0m8obt9rch9vo8rfig4en.apps.googleusercontent.com",
              "client_type": 2,
              "ios_info": {
                "bundle_id": "com.vmgsoftware.vmgmobilev2"
              }
            }
          ]
        }
      }
    }
  ],
  "configuration_version": "1"
}