<!-- Generated by IcoMoon.io -->
<svg version="1.1" xmlns="http://www.w3.org/2000/svg" width="30" height="30" viewBox="0 0 30 30">
<title>chevron-left</title>
<path d="M13 15l6.625-6.625c0.5-0.5 0.5-1.25 0-1.75s-1.25-0.5-1.75 0l-7.5 7.5c-0.5 0.5-0.5 1.25 0 1.75l7.5 7.5c0.25 0.25 0.625 0.375 0.875 0.375s0.625-0.125 0.875-0.375c0.5-0.5 0.5-1.25 0-1.75l-6.625-6.625z"></path>
</svg>
